[gd_scene load_steps=4 format=3 uid="uid://4yo178jhqifs"]

[ext_resource type="Script" path="res://scenes/skills/base/travel_scene.gd" id="1"]
[ext_resource type="Script" path="res://scenes/menus/return_button.gd" id="2_5ljhl"]

[sub_resource type="StyleBoxFlat" id="StyleBoxFlat_vpd74"]

[node name="travel_scene" type="Control"]
layout_mode = 3
anchors_preset = 15
anchor_right = 1.0
anchor_bottom = 1.0
grow_horizontal = 2
grow_vertical = 2
script = ExtResource("1")

[node name="cc_background" type="CenterContainer" parent="."]
layout_mode = 0
offset_right = 1024.0
offset_bottom = 600.0
size_flags_horizontal = 3
size_flags_vertical = 3

[node name="travel_background" type="Panel" parent="cc_background"]
custom_minimum_size = Vector2(1024, 600)
layout_mode = 2
theme_override_styles/panel = SubResource("StyleBoxFlat_vpd74")

[node name="back" type="Button" parent="cc_background/travel_background"]
layout_mode = 0
offset_left = 900.0
offset_top = 500.0
offset_right = 942.0
offset_bottom = 520.0
text = "Back"
icon_alignment = 1
script = ExtResource("2_5ljhl")

[node name="CenterContainer" type="CenterContainer" parent="cc_background"]
custom_minimum_size = Vector2(824, 400)
layout_mode = 2

[node name="GridContainer" type="GridContainer" parent="cc_background/CenterContainer"]
layout_mode = 2
size_flags_horizontal = 3
size_flags_vertical = 3
columns = 10
