; Engine configuration file.
; It's best edited using the editor UI and not directly,
; since the parameters that go here are not all obvious.
;
; Format:
;   [section] ; section goes between []
;   param=value ; assign values to parameters

config_version=5

[application]

config/name="Principles"
config/description="Principles is a Multiplayer Role Playing Framework.
Made With Godot 4."
run/main_scene="res://scenes/server/connection.tscn"
config/features=PackedStringArray("4.3")
config/icon="res://icon.png"

[autoload]

global="*res://scenes/global.gd"
PlayerData="*res://scenes/player/player_data.gd"
PlayerSave="*res://scenes/player/player_save.gd"
ServerSave="*res://scenes/server/server_save.gd"

[display]

window/size/viewport_width=1024
window/size/viewport_height=600

[input]

ui_focus_next={
"deadzone": 0.5,
"events": [Object(InputEventKey,"resource_local_to_scene":false,"resource_name":"","device":0,"window_id":0,"alt_pressed":false,"shift_pressed":false,"ctrl_pressed":false,"meta_pressed":false,"pressed":false,"keycode":4194306,"physical_keycode":0,"key_label":0,"unicode":4194306,"location":0,"echo":false,"script":null)
, Object(InputEventKey,"resource_local_to_scene":false,"resource_name":"","device":-1,"window_id":0,"alt_pressed":false,"shift_pressed":false,"ctrl_pressed":false,"meta_pressed":false,"pressed":false,"keycode":0,"physical_keycode":4194323,"key_label":0,"unicode":0,"location":0,"echo":false,"script":null)
]
}
ui_focus_prev={
"deadzone": 0.5,
"events": [Object(InputEventKey,"resource_local_to_scene":false,"resource_name":"","device":-1,"window_id":0,"alt_pressed":false,"shift_pressed":false,"ctrl_pressed":false,"meta_pressed":false,"pressed":false,"keycode":4194324,"physical_keycode":0,"key_label":0,"unicode":0,"location":0,"echo":false,"script":null)
]
}

[physics]

common/enable_pause_aware_picking=true

[rendering]

renderer/rendering_method="gl_compatibility"
environment/defaults/default_environment="res://default_env.tres"
