{
  "location_datas":{
    "name": "start place",
    "type": "forest",
    "room": [2, "path", "woodhouse"],
    "id": ["start",0],
    "place_text" : ["\n place_descr blabalbala", "\n just a path", "\n a house in woods"],
    "place_leads_to": ["place_two", "h1dd3n!_place_twohalf", "place_three"]
    }
}		