[gd_scene load_steps=2 format=3 uid="uid://d2c5m4qk8pkbi"]

[ext_resource type="Script" path="res://scenes/places/place_visuals.gd" id="1_qc56y"]

[node name="place_visuals" type="TextureRect"]
custom_minimum_size = Vector2(585, 300)
offset_right = 100.0
offset_bottom = 100.0
size_flags_horizontal = 0
size_flags_vertical = 0
expand_mode = 1
stretch_mode = 4
script = ExtResource("1_qc56y")
