[gd_scene load_steps=2 format=3 uid="uid://d14uhlc80r52i"]

[ext_resource type="Script" path="res://scenes/menus/emit_signal_label.gd" id="1_i17t8"]

[node name="emit_signal_label" type="Label"]
anchors_preset = 15
anchor_right = 1.0
anchor_bottom = 1.0
script = ExtResource("1_i17t8")

[connection signal="mouse_entered" from="." to="." method="_on_mouse_entered"]
